^D:\GITHUBANDGITLAB\DQ_SOFTWARE\0.1\SOURCE\DQE\ASSEMBLYINFO.CPP|D:\GITHUBANDGITLAB\DQ_SOFTWARE\0.1\SOURCE\DQE\DQE.CPP|D:\GITHUBANDGITLAB\DQ_SOFTWARE\0.1\SOURCE\DQE\DQE_PARAMETRS.CPP|D:\GITHUBANDGITLAB\DQ_SOFTWARE\0.1\SOURCE\DQE\MTF_FRAMEVIEW.CPP|D:\GITHUBANDGITLAB\DQ_SOFTWARE\0.1\SOURCE\DQE\MTF_PARAMETRS.CPP|D:\GITHUBANDGITLAB\DQ_SOFTWARE\0.1\SOURCE\DQE\NPS_FRAMEVIEW.CPP|D:\GITHUBANDGITLAB\DQ_SOFTWARE\0.1\SOURCE\DQE\NPS_PARAMETRS.CPP
D:\GITHUBANDGITLAB\DQ_SOFTWARE\0.1\SOURCE\DQE\DEBUG\DQE_PARAMETRS.OBJ
D:\GITHUBANDGITLAB\DQ_SOFTWARE\0.1\SOURCE\DQE\DEBUG\DQE.OBJ
D:\GITHUBANDGITLAB\DQ_SOFTWARE\0.1\SOURCE\DQE\DEBUG\NPS_PARAMETRS.OBJ
D:\GITHUBANDGITLAB\DQ_SOFTWARE\0.1\SOURCE\DQE\DEBUG\MTF_PARAMETRS.OBJ
D:\GITHUBANDGITLAB\DQ_SOFTWARE\0.1\SOURCE\DQE\DEBUG\MTF_FRAMEVIEW.OBJ
D:\GITHUBANDGITLAB\DQ_SOFTWARE\0.1\SOURCE\DQE\DEBUG\NPS_FRAMEVIEW.OBJ
D:\GITHUBANDGITLAB\DQ_SOFTWARE\0.1\SOURCE\DQE\DEBUG\ASSEMBLYINFO.OBJ
^D:\GITHUBANDGITLAB\DQ_SOFTWARE\0.1\SOURCE\DQE\MTF_FRAMEVIEW.CPP
D:\GITHUBANDGITLAB\DQ_SOFTWARE\0.1\SOURCE\DQE\DEBUG\VC100.PDB
^D:\GITHUBANDGITLAB\DQ_SOFTWARE\0.1\SOURCE\DQE\MTF_PARAMETRS.CPP
D:\GITHUBANDGITLAB\DQ_SOFTWARE\0.1\SOURCE\DQE\DEBUG\VC100.PDB
^D:\GITHUBANDGITLAB\DQ_SOFTWARE\0.1\SOURCE\DQE\NPS_FRAMEVIEW.CPP
D:\GITHUBANDGITLAB\DQ_SOFTWARE\0.1\SOURCE\DQE\DEBUG\VC100.PDB
^D:\GITHUBANDGITLAB\DQ_SOFTWARE\0.1\SOURCE\DQE\NPS_PARAMETRS.CPP
D:\GITHUBANDGITLAB\DQ_SOFTWARE\0.1\SOURCE\DQE\DEBUG\VC100.PDB
^C:\USERS\HARDE\APPDATA\LOCAL\TEMP\.NETFRAMEWORK,VERSION=V4.0.ASSEMBLYATTRIBUTES.CPP
D:\GITHUBANDGITLAB\DQ_SOFTWARE\0.1\SOURCE\DQE\DEBUG\.NETFRAMEWORK,VERSION=V4.0.ASSEMBLYATTRIBUTES.OBJ
D:\GITHUBANDGITLAB\DQ_SOFTWARE\0.1\SOURCE\DQE\DEBUG\VC100.PDB
^D:\GITHUBANDGITLAB\DQ_SOFTWARE\0.1\SOURCE\DQE\DQE.CPP|D:\GITHUBANDGITLAB\DQ_SOFTWARE\0.1\SOURCE\DQE\DQE_PARAMETRS.CPP
D:\GITHUBANDGITLAB\DQ_SOFTWARE\0.1\SOURCE\DQE\DEBUG\DQE.OBJ
D:\GITHUBANDGITLAB\DQ_SOFTWARE\0.1\SOURCE\DQE\DEBUG\DQE_PARAMETRS.OBJ
^D:\GITHUBANDGITLAB\DQ_SOFTWARE\0.1\SOURCE\DQE\STDAFX.CPP
D:\GITHUBANDGITLAB\DQ_SOFTWARE\0.1\SOURCE\DQE\DEBUG\DQE.PCH
D:\GITHUBANDGITLAB\DQ_SOFTWARE\0.1\SOURCE\DQE\DEBUG\STDAFX.OBJ
D:\GITHUBANDGITLAB\DQ_SOFTWARE\0.1\SOURCE\DQE\DEBUG\VC100.PDB
^D:\GITHUBANDGITLAB\DQ_SOFTWARE\0.1\SOURCE\DQE\ASSEMBLYINFO.CPP|D:\GITHUBANDGITLAB\DQ_SOFTWARE\0.1\SOURCE\DQE\DQE.CPP|D:\GITHUBANDGITLAB\DQ_SOFTWARE\0.1\SOURCE\DQE\DQE_PARAMETRS.CPP
D:\GITHUBANDGITLAB\DQ_SOFTWARE\0.1\SOURCE\DQE\DEBUG\DQE_PARAMETRS.OBJ
D:\GITHUBANDGITLAB\DQ_SOFTWARE\0.1\SOURCE\DQE\DEBUG\DQE.OBJ
D:\GITHUBANDGITLAB\DQ_SOFTWARE\0.1\SOURCE\DQE\DEBUG\ASSEMBLYINFO.OBJ
^D:\GITHUBANDGITLAB\DQ_SOFTWARE\0.1\SOURCE\DQE\ASSEMBLYINFO.CPP
D:\GITHUBANDGITLAB\DQ_SOFTWARE\0.1\SOURCE\DQE\DEBUG\VC100.PDB
^D:\GITHUBANDGITLAB\DQ_SOFTWARE\0.1\SOURCE\DQE\DQE_PARAMETRS.CPP
D:\GITHUBANDGITLAB\DQ_SOFTWARE\0.1\SOURCE\DQE\DEBUG\VC100.PDB
^D:\GITHUBANDGITLAB\DQ_SOFTWARE\0.1\SOURCE\DQE\COMPUTE_PARAMETRS.CPP|D:\GITHUBANDGITLAB\DQ_SOFTWARE\0.1\SOURCE\DQE\DQE.CPP
D:\GITHUBANDGITLAB\DQ_SOFTWARE\0.1\SOURCE\DQE\DEBUG\DQE.OBJ
D:\GITHUBANDGITLAB\DQ_SOFTWARE\0.1\SOURCE\DQE\DEBUG\COMPUTE_PARAMETRS.OBJ
^D:\GITHUBANDGITLAB\DQ_SOFTWARE\0.1\SOURCE\DQE\COMPUTE_PARAMETRS.CPP
D:\GITHUBANDGITLAB\DQ_SOFTWARE\0.1\SOURCE\DQE\DEBUG\VC100.PDB
^D:\GITHUBANDGITLAB\DQ_SOFTWARE\0.1\SOURCE\DQE\DQE.CPP
D:\GITHUBANDGITLAB\DQ_SOFTWARE\0.1\SOURCE\DQE\DEBUG\VC100.PDB
