^D:\GITHUBANDGITLAB\DQ_SOFTWARE\0.1\SOURCE\DQE\X64\DEBUG\.NETFRAMEWORK,VERSION=V4.0.ASSEMBLYATTRIBUTES.OBJ|D:\GITHUBANDGITLAB\DQ_SOFTWARE\0.1\SOURCE\DQE\X64\DEBUG\APP.RES|D:\GITHUBANDGITLAB\DQ_SOFTWARE\0.1\SOURCE\DQE\X64\DEBUG\ASSEMBLYINFO.OBJ|D:\GITHUBANDGITLAB\DQ_SOFTWARE\0.1\SOURCE\DQE\X64\DEBUG\COMPUTE_PARAMETRS.OBJ|D:\GITHUBANDGITLAB\DQ_SOFTWARE\0.1\SOURCE\DQE\X64\DEBUG\CONFIGPARCER.OBJ|D:\GITHUBANDGITLAB\DQ_SOFTWARE\0.1\SOURCE\DQE\X64\DEBUG\CPUINFORMATION.OBJ|D:\GITHUBANDGITLAB\DQ_SOFTWARE\0.1\SOURCE\DQE\X64\DEBUG\DQE.OBJ|D:\GITHUBANDGITLAB\DQ_SOFTWARE\0.1\SOURCE\DQE\X64\DEBUG\DQE_CONFIG.OBJ|D:\GITHUBANDGITLAB\DQ_SOFTWARE\0.1\SOURCE\DQE\X64\DEBUG\FLR_P.OBJ|D:\GITHUBANDGITLAB\DQ_SOFTWARE\0.1\SOURCE\DQE\X64\DEBUG\HISTOGRAM.OBJ|D:\GITHUBANDGITLAB\DQ_SOFTWARE\0.1\SOURCE\DQE\X64\DEBUG\IMAGEPROCESSOR.OBJ|D:\GITHUBANDGITLAB\DQ_SOFTWARE\0.1\SOURCE\DQE\X64\DEBUG\LUT_SOLVER.OBJ|D:\GITHUBANDGITLAB\DQ_SOFTWARE\0.1\SOURCE\DQE\X64\DEBUG\POINT.OBJ|D:\GITHUBANDGITLAB\DQ_SOFTWARE\0.1\SOURCE\DQE\X64\DEBUG\POSIX_RECT.OBJ|D:\GITHUBANDGITLAB\DQ_SOFTWARE\0.1\SOURCE\DQE\X64\DEBUG\PROXYTRANSACTION.OBJ|D:\GITHUBANDGITLAB\DQ_SOFTWARE\0.1\SOURCE\DQE\X64\DEBUG\STDAFX.OBJ
D:\GITHUBANDGITLAB\DQ_SOFTWARE\0.1\SOURCE\X64\DEBUG\DQE.EXE
D:\GITHUBANDGITLAB\DQ_SOFTWARE\0.1\SOURCE\DQE\X64\DEBUG\DQE.EXE.INTERMEDIATE.MANIFEST
D:\GITHUBANDGITLAB\DQ_SOFTWARE\0.1\SOURCE\X64\DEBUG\DQE.PDB
