^D:\GITHUBANDGITLAB\DQ_SOFTWARE\0.1\SOURCE\DQE\X64\DEBUG\DQE.EXE.INTERMEDIATE.MANIFEST
C:\WINDOWS\REGISTRATION\R00000000000F.CLB
C:\WINDOWS\MICROSOFT.NET\FRAMEWORK\V2.0.50727\MSCORWKS.DLL
C:\WINDOWS\MICROSOFT.NET\FRAMEWORK\V4.0.30319\CLR.DLL
C:\PROGRAM FILES (X86)\MICROSOFT SDKS\WINDOWS\V7.0A\BIN\MT.EXE.CONFIG
D:\GITHUBANDGITLAB\DQ_SOFTWARE\0.1\SOURCE\X64\DEBUG\DQE.EXE
