Original dose in mkGr,  mkGrINmAs1.68

 mkGr     xDQE    
 3.3600    0.0000 
 6.7200    0.0000 
 26.8800    0.0000 

 freq f0=1  f1=6  
 mkGr     yDQE    


Original dose in mkGr,  mkGrINmAs1.68

 3.3600    0.0000 
 6.7200    0.0000 
 26.8800    0.0000 

 freq f0=1  f1=6  
